…
------------------------------------------------------------------------

# Question: Is funding for space exploration (NASA) a partisan issue?

Let’s start by looking at responses to the question: **“Do you think funding for space exploration is too little, about right, or too much?”**

``` r
gss %>% select(party, NASA)
```

    ## # A tibble: 149 × 2
    ##    party NASA       
    ##    <fct> <fct>      
    ##  1 Ind   TOO LITTLE 
    ##  2 Ind   ABOUT RIGHT
    ##  3 Dem   ABOUT RIGHT
    ##  4 Ind   TOO LITTLE 
    ##  5 Ind   TOO MUCH   
    ##  6 Ind   TOO LITTLE 
    ##  7 Ind   ABOUT RIGHT
    ##  8 Dem   ABOUT RIGHT
    ##  9 Dem   TOO LITTLE 
    ## 10 Ind   TOO LITTLE 
    ## # … with 139 more rows
…
Another way to test if there is a significant relationship in our data is to take a programatic approach.

In his talk, Andrew Bray says:

> If we live in world where variables are totally unrelated, the ties between variables are arbitrary, so they might just as well have been shuffled.

What would that random world look like? Let’s take one of the columns of our data_frame and scramble it.

``` r
gss %>% select(party, NASA) %>% 
  mutate(permutation_1 = sample(NASA),
         permutation_2 = sample(NASA))
```

    ## # A tibble: 149 × 4
    ##    party NASA        permutation_1 permutation_2
    ##    <fct> <fct>       <fct>         <fct>        
    ##  1 Ind   TOO LITTLE  ABOUT RIGHT   ABOUT RIGHT  
    ##  2 Ind   ABOUT RIGHT TOO MUCH      ABOUT RIGHT  
    ##  3 Dem   ABOUT RIGHT ABOUT RIGHT   ABOUT RIGHT  
    ##  4 Ind   TOO LITTLE  TOO LITTLE    TOO LITTLE   
    ##  5 Ind   TOO MUCH    TOO MUCH      ABOUT RIGHT  
    ##  6 Ind   TOO LITTLE  ABOUT RIGHT   TOO LITTLE   
    ##  7 Ind   ABOUT RIGHT ABOUT RIGHT   TOO MUCH     
    ##  8 Dem   ABOUT RIGHT ABOUT RIGHT   TOO MUCH     
    ##  9 Dem   TOO LITTLE  ABOUT RIGHT   TOO MUCH     
    ## 10 Ind   TOO LITTLE  TOO MUCH      ABOUT RIGHT  
    ## # … with 139 more rows
…
If we omit `visualize`, we get a dataframe of the permuted values:

``` r
gss %>% 
  specify(NASA ~ party)  %>% 
  hypothesize(null = "independence") %>% 
  generate(reps = 1000, type = "permute") %>% 
  calculate(stat = "Chisq") #%>% 
```

    ## Response: NASA (factor)
    ## Explanatory: party (factor)
    ## Null Hypothesis: independence
    ## # A tibble: 1,000 × 2
    ##    replicate  stat
    ##        <int> <dbl>
    ##  1         1 3.98 
    ##  2         2 2.00 
    ##  3         3 0.712
    ##  4         4 2.14 
    ##  5         5 4.41 
    ##  6         6 1.38 
    ##  7         7 4.61 
    ##  8         8 1.82 
    ##  9         9 4.89 
    ## 10        10 1.47 
    ## # … with 990 more rows
…
