Tidy chi-squared stats in infer | Rich Paulo
…
##  [1] "id"       "year"     "age"      "class"    "degree"   "sex"     
##  [7] "marital"  "race"     "region"   "partyid"  "happy"    "relig"   
## [13] "cappun"   "finalter" "natspac"  "natarms"  "conclerg" "confed"  
## [19] "conpress" "conjudge" "consci"   "conlegis" "zodiac"   "oversamp"
## [25] "postlife" "party"    "space"    "NASA"

Question: Is funding for space exploration (NASA) a partisan issue?

Let’s start by looking at responses to the question: “Do you think funding for space exploration is too little, about right, or too much?”

gss %>% select(party, NASA)

## # A tibble: 149 x 2
##    party NASA       
##    <fct> <fct>      
##  1 Ind   TOO LITTLE 
##  2 Ind   ABOUT RIGHT
##  3 Dem   ABOUT RIGHT
##  4 Ind   TOO LITTLE 
##  5 Ind   TOO MUCH   
##  6 Ind   TOO LITTLE 
##  7 Ind   ABOUT RIGHT
##  8 Dem   ABOUT RIGHT
##  9 Dem   TOO LITTLE 
## 10 Ind   TOO LITTLE 
## # … with 139 more rows
…
Programatic Solution

Another way to test if there is a significant relationship in our data is to take a programatic approach.

In his talk, Andrew Bray says:

If we live in world where variables are totally unrelated, the ties between variables are arbitrary, so they might just as well have been shuffled.

What would that random world look like? Let’s take one of the columns of our data_frame and scramble it.

gss %>% select(party, NASA) %>% 
  mutate(permutation_1 = sample(NASA),
         permutation_2 = sample(NASA))

## # A tibble: 149 x 4
##    party NASA        permutation_1 permutation_2
##    <fct> <fct>       <fct>         <fct>        
##  1 Ind   TOO LITTLE  TOO MUCH      TOO MUCH     
##  2 Ind   ABOUT RIGHT ABOUT RIGHT   TOO LITTLE   
##  3 Dem   ABOUT RIGHT TOO LITTLE    TOO MUCH     
##  4 Ind   TOO LITTLE  TOO MUCH      ABOUT RIGHT  
##  5 Ind   TOO MUCH    ABOUT RIGHT   TOO MUCH     
##  6 Ind   TOO LITTLE  TOO MUCH      ABOUT RIGHT  
##  7 Ind   ABOUT RIGHT ABOUT RIGHT   TOO LITTLE   
##  8 Dem   ABOUT RIGHT ABOUT RIGHT   TOO MUCH     
##  9 Dem   TOO LITTLE  TOO MUCH      ABOUT RIGHT  
## 10 Ind   TOO LITTLE  TOO LITTLE    TOO MUCH     
## # … with 139 more rows
…
## # A tibble: 1 x 1
##   p_val
##   <dbl>
## 1 0.856

If we omit visualize, we get a dataframe of the permuted values:

gss %>% 
  specify(NASA ~ party)  %>% 
  hypothesize(null = "independence") %>% 
  generate(reps = 1000, type = "permute") %>% 
  calculate(stat = "Chisq") #%>% 

## # A tibble: 1,000 x 2
##    replicate  stat
##        <int> <dbl>
##  1         1 2.85 
##  2         2 1.36 
##  3         3 0.342
##  4         4 3.17 
##  5         5 1.82 
##  6         6 6.10 
##  7         7 2.73 
##  8         8 2.11 
##  9         9 0.846
## 10        10 2.24 
## # … with 990 more rows
…
